Build a useful model
…
# `training()` and `testing()`

Extract training and testing sets from an rsplit

```r
training(alz_split)
testing(alz_split)
```

---

```r
alz_train <- training(alz_split) 
alz_train
# # A tibble: 300 × 131
#    ACE_CD143_Angioten… ACTH_Adrenocortic…    AXL Adiponectin
#                  <dbl>              <dbl>  <dbl>       <dbl>
#  1               2.00              -1.39   1.10        -5.36
#  2               1.56              -1.39   0.683       -5.02
#  3               1.52              -1.71  -0.145       -5.81
#  4               1.68              -1.61   0.683       -5.12
#  5               2.40              -0.968  0.191       -4.78
#  6               0.431             -1.27  -0.222       -5.22
#  7               0.946             -1.90   0.530       -6.12
#  8               0.708             -1.83  -0.327       -4.88
#  9               1.11              -1.97   0.191       -5.17
# 10               1.60              -1.51   0.449       -5.57
# # … with 290 more rows, and 127 more variables:
# #   Alpha_1_Antichymotrypsin <dbl>,
# #   Alpha_1_Antitrypsin <dbl>, Alpha_1_Microglobulin <dbl>,
# #   Alpha_2_Macroglobulin <dbl>,
# #   Angiopoietin_2_ANG_2 <dbl>, …
```
…
--

.pull-right[

```r
collect_metrics(tree_fit, summarize = FALSE)
# # A tibble: 20 × 5
#    id     .metric  .estimator .estimate .config             
#    <chr>  <chr>    <chr>          <dbl> <chr>               
#  1 Fold01 accuracy binary         0.774 Preprocessor1_Model1
#  2 Fold01 roc_auc  binary         0.692 Preprocessor1_Model1
#  3 Fold02 accuracy binary         0.839 Preprocessor1_Model1
#  4 Fold02 roc_auc  binary         0.848 Preprocessor1_Model1
#  5 Fold03 accuracy binary         0.867 Preprocessor1_Model1
#  6 Fold03 roc_auc  binary         0.852 Preprocessor1_Model1
#  7 Fold04 accuracy binary         0.8   Preprocessor1_Model1
#  8 Fold04 roc_auc  binary         0.795 Preprocessor1_Model1
#  9 Fold05 accuracy binary         0.767 Preprocessor1_Model1
# 10 Fold05 roc_auc  binary         0.744 Preprocessor1_Model1
# # … with 10 more rows
```
…
---

```r
tree_preds <- tree_mod %>% 
  fit_resamples(
    Class ~ tau + VEGF, 
    resamples = alz_folds,
    control = control_resamples(save_pred = TRUE)
  )

tree_preds %>% 
  collect_predictions() %>% 
  roc_curve(truth = Class, estimate = .pred_Impaired)
# # A tibble: 40 × 3
#    .threshold specificity sensitivity
#         <dbl>       <dbl>       <dbl>
#  1  -Inf           0            1    
#  2     0.0703      0            1    
#  3     0.0708      0.0688       0.976
#  4     0.0713      0.124        0.963
#  5     0.0767      0.183        0.951
#  6     0.0772      0.248        0.939
#  7     0.0925      0.317        0.927
#  8     0.0960      0.344        0.890
#  9     0.0998      0.408        0.854
# 10     0.102       0.454        0.829
# # … with 30 more rows
```
…
