Build a fine-tuned model
…
set.seed(100) # Important!
rf_results <-
  rf_wf %>% 
  tune_grid(resamples = alz_folds)
```

---

```r
rf_results %>% 
  collect_metrics() 
# # A tibble: 20 × 8
#     mtry min_n .metric  .estimator  mean     n std_err
#    <int> <int> <chr>    <chr>      <dbl> <int>   <dbl>
#  1    40     3 accuracy binary     0.853    10  0.0158
#  2    40     3 roc_auc  binary     0.889    10  0.0241
#  3    60    20 accuracy binary     0.857    10  0.0190
#  4    60    20 roc_auc  binary     0.891    10  0.0225
#  5   104    24 accuracy binary     0.864    10  0.0156
#  6   104    24 roc_auc  binary     0.881    10  0.0233
#  7    19    15 accuracy binary     0.837    10  0.0160
#  8    19    15 roc_auc  binary     0.889    10  0.0245
#  9   124    26 accuracy binary     0.860    10  0.0172
# 10   124    26 roc_auc  binary     0.885    10  0.0222
# # … with 10 more rows, and 1 more variable: .config <chr>
```

---

```r
rf_results %>% 
  collect_metrics(summarize = FALSE) 
# # A tibble: 200 × 7
#    id      mtry min_n .metric  .estimator .estimate .config 
#    <chr>  <int> <int> <chr>    <chr>          <dbl> <chr>   
#  1 Fold01    40     3 accuracy binary         0.839 Preproc…
#  2 Fold01    40     3 roc_auc  binary         0.869 Preproc…
#  3 Fold02    40     3 accuracy binary         0.806 Preproc…
#  4 Fold02    40     3 roc_auc  binary         0.869 Preproc…
#  5 Fold03    40     3 accuracy binary         0.933 Preproc…
#  6 Fold03    40     3 roc_auc  binary         0.966 Preproc…
#  7 Fold04    40     3 accuracy binary         0.8   Preproc…
#  8 Fold04    40     3 roc_auc  binary         0.847 Preproc…
#  9 Fold05    40     3 accuracy binary         0.867 Preproc…
# 10 Fold05    40     3 roc_auc  binary         0.977 Preproc…
# # … with 190 more rows
```
…
---
class: middle

.center[
# Final test predictions
]

```r
last_rf_fit %>% 
  collect_predictions()
# # A tibble: 33 × 7
#    id               .pred_Impaired .pred_Control  .row .pred_class
#    <chr>                     <dbl>         <dbl> <int> <fct>      
#  1 train/test split        0.264           0.736    13 Control    
#  2 train/test split        0.223           0.777    14 Control    
#  3 train/test split        0.256           0.744    33 Control    
#  4 train/test split        0.434           0.566    43 Control    
#  5 train/test split        0.0765          0.924    46 Control    
#  6 train/test split        0.270           0.730    48 Control    
#  7 train/test split        0.00933         0.991    49 Control    
#  8 train/test split        0.808           0.192    56 Impaired   
#  9 train/test split        0.629           0.371    67 Impaired   
# 10 train/test split        0.110           0.890    68 Control    
# # … with 23 more rows, and 2 more variables: Class <fct>,
# #   .config <chr>
```
…
